<svg width="16" height="16" viewBox="0 0 16 16" fill="none" xmlns="http://www.w3.org/2000/svg">
<path fill-rule="evenodd" clip-rule="evenodd" d="M5 3.86819L6.39289 2.5L12 7.98411L6.40111 13.5L5.00317 12.1368L9.21329 7.98906L5 3.86819Z" fill="#B9BABD"/>
</svg>
